Date : 2021-02-22_22:52 
Cours du BTC : {'EUR': 45193.09} 
Cours du ETH : {'EUR': 1486.4} 
Cours du DOT : {'EUR': 30.78} 
Cours du CRO : {'EUR': 0.1882} 
Cours du LINK : {'EUR': 26.02} 
Cours du LTC : {'EUR': 172.77} 
Cours du EGLD : {'EUR': 106.31} 
Cours du AAVE : {'EUR': 340.3} 
Cours du ZIL : {'EUR': 0.1039} 
Cours du SNX : {'EUR': 17.57} 
Cours du THETA : {'EUR': 2.797} 
Cours du CHZ : {'EUR': 0.0403} 
