Date : 2021-02-23_20:25 
Cours du BTC : {'EUR': 38521.48} 
Cours du ETH : {'EUR': 1233.28} 
Cours du DOT : {'EUR': 26.19} 
Cours du CRO : {'EUR': 0.1229} 
Cours du LINK : {'EUR': 20.28} 
Cours du LTC : {'EUR': 137.65} 
Cours du EGLD : {'EUR': 86} 
Cours du AAVE : {'EUR': 266.97} 
Cours du ZIL : {'EUR': 0.07955} 
Cours du SNX : {'EUR': 13.68} 
Cours du THETA : {'EUR': 2.433} 
Cours du CHZ : {'EUR': 0.03172} 
